https://www.katom.com/071-SRM30.html
https://www.katom.com/071-BC18.html
https://www.katom.com/071-BC14.html
https://www.katom.com/071-MG89.html
https://www.katom.com/071-PM91PK2.html
https://www.katom.com/071-VP30N8.html
https://www.katom.com/071-VP40N21.html
https://www.katom.com/071-UFP13.html
https://www.katom.com/071-1023089.html
https://www.katom.com/071-VS2000.html
https://www.katom.com/071-1000913.html
https://www.katom.com/071-PM91.html
https://www.katom.com/071-1000909.html
https://www.katom.com/071-1061089.html
https://www.katom.com/071-MG221151.html
https://www.katom.com/071-1000601.html
https://www.katom.com/071-CV0.html
https://www.katom.com/071-1000907.html
https://www.katom.com/071-1020090.html
https://www.katom.com/071-1023083.html
https://www.katom.com/071-PM91PK1.html
https://www.katom.com/071-VS9H.html
https://www.katom.com/071-1000908.html
https://www.katom.com/071-1012232.html
https://www.katom.com/071-1033107.html
https://www.katom.com/071-1000906.html
https://www.katom.com/071-1000910.html
https://www.katom.com/071-1020091.html